<?xml version="1.0" encoding="UTF-8"?>
<!DOCTYPE svg PUBLIC "-//W3C//DTD SVG 1.1//EN" "http://www.w3.org/Graphics/SVG/1.1/DTD/svg11.dtd">
<svg version="1.1" id="Layer_1" xmlns="http://www.w3.org/2000/svg" xmlns:xlink="http://www.w3.org/1999/xlink" x="0px" y="0px" width="21px" height="21px" viewBox="0 0 21 21" enable-background="new 0 0 21 21" xml:space="preserve">
  <g id="icon">
    <path d="M18.7,18.5H2.3c-0.4418,0,-0.8,-0.3582,-0.8,-0.8V3.3c0,-0.4418,0.3582,-0.8,0.8,-0.8h16.4c0.4418,0,0.8,0.3582,0.8,0.8v14.4C19.5,18.1418,19.1418,18.5,18.7,18.5z" fill-rule="evenodd" fill="none" stroke="#434a54" stroke-width="1" stroke-miterlimit="10" stroke-linejoin="round"/>
    <line x1="1.5" y1="5.5" x2="19.4" y2="5.5" fill="none" stroke="#434a54" stroke-width="1" stroke-miterlimit="10"/>
  </g>
</svg>
