<?xml version="1.0" encoding="UTF-8" standalone="no"?>
<svg
   xmlns:dc="http://purl.org/dc/elements/1.1/"
   xmlns:cc="http://creativecommons.org/ns#"
   xmlns:rdf="http://www.w3.org/1999/02/22-rdf-syntax-ns#"
   xmlns:svg="http://www.w3.org/2000/svg"
   xmlns="http://www.w3.org/2000/svg"
   xmlns:sodipodi="http://sodipodi.sourceforge.net/DTD/sodipodi-0.dtd"
   xmlns:inkscape="http://www.inkscape.org/namespaces/inkscape"
   version="1.1"
   id="Layer_1"
   x="0px"
   y="0px"
   width="21px"
   height="21px"
   viewBox="0 0 21 21"
   enable-background="new 0 0 21 21"
   xml:space="preserve"
   sodipodi:docname="social-dropbox-closed.svg"
   inkscape:version="1.0.2-2 (e86c870879, 2021-01-15)"><metadata
   id="metadata10"><rdf:RDF><cc:Work
       rdf:about=""><dc:format>image/svg+xml</dc:format><dc:type
         rdf:resource="http://purl.org/dc/dcmitype/StillImage" /><dc:title></dc:title></cc:Work></rdf:RDF></metadata><defs
   id="defs8">
    
  </defs><sodipodi:namedview
   pagecolor="#ffffff"
   bordercolor="#666666"
   borderopacity="1"
   objecttolerance="10"
   gridtolerance="10"
   guidetolerance="10"
   inkscape:pageopacity="0"
   inkscape:pageshadow="2"
   inkscape:window-width="3840"
   inkscape:window-height="1537"
   id="namedview6"
   showgrid="true"
   inkscape:zoom="48"
   inkscape:cx="10.5"
   inkscape:cy="10.5"
   inkscape:window-x="-8"
   inkscape:window-y="-8"
   inkscape:window-maximized="1"
   inkscape:current-layer="Layer_1"><inkscape:grid
     type="xygrid"
     id="grid835" /></sodipodi:namedview>
  <path
   d="m 4.5,8.5 6,2.863 c -6,-2.863 0,0 -6,-2.863 z m 0,0 5.9635,-3.3396 C 4.5,8.5 10.4635,5.1604 4.5,8.5 Z M 10.5863,5.1604 16.5,8.5 c -5.9137,-3.3396 0,0 -5.9137,-3.3396 z m -0.0813,6.202 C 16.5,8.5 10.5,11.5 16.5,8.5 Z M 4.5,8.5 v 7.2336 L 10.5205,19 16.5,15.7336 V 8.5 m -6,10.3639 V 11.5"
   fill="none"
   stroke="#434a54"
   stroke-width="1"
   stroke-linecap="round"
   stroke-miterlimit="10"
   stroke-linejoin="round"
   id="path2"
   sodipodi:nodetypes="ccccccccccccccccccc" />
<path
   style="fill:none;stroke:#434a54;stroke-width:1px;stroke-linecap:butt;stroke-linejoin:miter;stroke-opacity:1"
   d="M 7.5,10 C 7.5,9.7291667 13,6.7291667 13,6.7291667"
   id="path838"
   sodipodi:nodetypes="cc" /></svg>
